Figure S18: Gene set enrichment comparing KRAS co-occurrence with KRAS alone
…
stats[[3]] %>%
    mutate(pathway=as.character(pathway)) %>%
    filter(pathway == "HM Interferon Gamma Response")

# A tibble: 197 × 9
   gene   pathway            neglo…¹    pval    padj  rank   nes direc…² numbe…³
   <chr>  <chr>                <dbl>   <dbl>   <dbl> <dbl> <dbl> <fct>     <int>
 1 PNP    HM Interferon Gam…    1.88 2.02e-9 1.24e-7   150 -1.93 Down      28087
 2 VAMP5  HM Interferon Gam…    1.62 2.02e-9 1.24e-7   248 -1.93 Down      28087
 3 IRF8   HM Interferon Gam…    1.59 2.02e-9 1.24e-7   269 -1.93 Down      28087
 4 IFNAR2 HM Interferon Gam…    1.46 2.02e-9 1.24e-7   364 -1.93 Down      28087
 5 CCL7   HM Interferon Gam…    1.39 2.02e-9 1.24e-7   430 -1.93 Down      28087
 6 FAS    HM Interferon Gam…    1.35 2.02e-9 1.24e-7   474 -1.93 Down      28087
 7 EIF4E3 HM Interferon Gam…    1.31 2.02e-9 1.24e-7   518 -1.93 Down      28087
 8 SSPN   HM Interferon Gam…    1.30 2.02e-9 1.24e-7   533 -1.93 Down      28087
 9 IFI30  HM Interferon Gam…    1.29 2.02e-9 1.24e-7   540 -1.93 Down      28087
10 IL7    HM Interferon Gam…    1.24 2.02e-9 1.24e-7   611 -1.93 Down      28087
# … with 187 more rows, and abbreviated variable names ¹​neglog10p, ²​direction,
#   ³​number_genes
# ℹ Use `print(n = ...)` to see more rows
…
